Chapter 4 Missing values | Vegan Planet
…
4.0.0.1 Missing by borough

## # A tibble: 81 × 4
##    Borough       num_restaurants num_na_claimed percent_na
##    <chr>                   <int>          <int>      <dbl>
##  1 Albany                      5              5          1
##  2 Astoria                    60             60          1
##  3 Atlanta                     5              5          1
##  4 Austin                    138            138          1
##  5 Bellerose                  64             64          1
##  6 Beverly Hills             141            141          1
##  7 Boston                     22             22          1
##  8 Brooklyn                 1188           1188          1
##  9 Canoga Park                31             31          1
## 10 Carrboro                   18             18          1
## # … with 71 more rows

## # A tibble: 81 × 4
##    Borough         num_restaurants num_na_menus_currency percent_na
##    <chr>                     <int>                 <int>      <dbl>
##  1 Carrboro                     18                    10       0.56
##  2 Minnetonka                   65                    33       0.51
##  3 Rancho Santa Fe              22                    10       0.45
##  4 Albany                        5                     0       0   
##  5 Arlington                    32                     0       0   
##  6 Asbury Park                  42                     0       0   
##  7 Astoria                      60                     0       0   
##  8 Atlanta                       5                     0       0   
##  9 Austin                      138                     0       0   
## 10 Bellerose                    64                     0       0   
## # … with 71 more rows
…
