Chapter 5 Results | Plant-Based Dining Trends
…
## # A tibble: 1,369 × 3
##       id Age   difficulty_during_transition
##    <dbl> <chr>                        <dbl>
##  1   507 60-80                            3
##  2   499 60-80                            2
##  3   494 20-40                            3
##  4    62 40-60                            3
##  5    64 40-60                            5
##  6    72 20-40                            2
##  7    77 20-40                            4
##  8    83 0-20                             1
##  9    92 20-40                            2
## 10    94 20-40                            1
## # … with 1,359 more rows

## # A tibble: 1,387 × 4
##       id ALLAGEADOPTION ALLTRANSITION ALLLENGTH
##    <dbl>          <dbl>         <dbl>     <dbl>
##  1   507             75             1         1
##  2   499             61             6         1
##  3   494             33             3         3
##  4    62             45             6         1
##  5    64             47             1         1
##  6    72             36             1         3
##  7    77             39             2         2
##  8    83             16             3         5
##  9    92             30             3         6
## 10    94             40             3         6
## # … with 1,377 more rows
…
## # A tibble: 1,387 × 10
##       id ALLANIMALPROTECTION ALLENVIRONMENT ALLCOST ALLHEALTH ALLRELIGIOUSSPIRI…
##    <dbl>               <dbl>          <dbl>   <dbl>     <dbl>              <dbl>
##  1   507                   1              1       1         1                  1
##  2   499                   1              1       1         1                  1
##  3   494                   3              4       5         5                  1
##  4    62                   3              2       1         3                  1
##  5    64                   1              1       1         5                  1
##  6    72                   3              4       1         5                  2
##  7    77                   3              3       5         2                  1
##  8    83                   3              2       2         5                  1
##  9    92                   5              5       1         5                  1
## 10    94                   3              5       3         5                  3
## # … with 1,377 more rows, and 4 more variables: ALLSOCIALINFLUENCE <dbl>,
## #   ALLSOCIALJUSTICEWORLDHUNGER <dbl>, ALLFOODTREND <dbl>, ALLDISGUST <dbl>
…
## # A tibble: 1,336 × 5
##       id ALLLENGTH ALLTRANSITION ALLINCONVENIENCE4D ALLINCONVENIENCE3D
##    <dbl>     <dbl>         <dbl>              <dbl>              <dbl>
##  1   507         1             1                  0                  1
##  2   499         1             6                  0                  0
##  3   494         3             3                  1                  0
##  4    62         1             6                  0                  0
##  5    64         1             1                  0                  1
##  6    72         3             1                  0                  0
##  7    77         2             2                  0                  1
##  8    83         5             3                  0                  1
##  9    92         6             3                  0                  1
## 10    94         6             3                  0                  0
## # … with 1,326 more rows
…
